<?xml version="1.0" ?>
<robot name="my_vehicle">
  <joint name="my_vehicle__link_JOINT_0" type="revolute">
    <parent link="my_vehicle__link"/>
    <child link="my_vehicle__link_0"/>
    <origin rpy="1.57070000e+00   1.00000000e-05   9.40000000e-04" xyz="-0.04244  2.66409  0.3"/>
    <axis xyz="-1.00000000e-05   1.00000000e+00   9.00000000e-05"/>
    <limit effort="-1.0" lower="-1.79769e+308" upper="1.79769e+308" velocity="-1.0"/>
  </joint>
  <joint name="my_vehicle__link_JOINT_1" type="revolute">
    <parent link="my_vehicle__link"/>
    <child link="my_vehicle__link_0_clone"/>
    <origin rpy="1.57071000e+00   3.00000000e-05   1.88000000e-03" xyz="-0.04143  1.45702  0.3"/>
    <axis xyz="-3.00000000e-05   1.00000000e+00   8.00000000e-05"/>
    <limit effort="-1.0" lower="-1.79769e+308" upper="1.79769e+308" velocity="-1.0"/>
  </joint>
  <joint name="my_vehicle__link_JOINT_3" type="continuous">
    <parent link="my_vehicle__link"/>
    <child link="my_vehicle__link_2"/>
    <origin rpy="-1.00000000e-05   0.00000000e+00   0.00000000e+00" xyz="-1.48827  2.05255  0.2"/>
    <axis xyz="0  0  0"/>
    <limit effort="0" lower="0" upper="0" velocity="0"/>
  </joint>
  <link name="my_vehicle__link">
    <inertial>
      <mass value="0.519761"/>
      <origin rpy="0  0  0" xyz="0   0   0.4"/>
      <inertia ixx="0.0541267" ixy="0" ixz="0" iyy="0.179879" iyz="0" izz="0.202277"/>
    </inertial>
    <collision name="my_vehicle__collision">
      <origin rpy="0  0  0" xyz="-0.71529  2.05256  0.39998"/>
      <geometry>
        <box size="1.94595 0.939884 0.605202"/>
      </geometry>
    </collision>
    <visual name="my_vehicle__visual">
      <origin rpy="0  0  0" xyz="-0.71529  2.05256  0.39998"/>
      <geometry>
        <box size="1.94595 0.939884 0.605202"/>
      </geometry>
    </visual>
  </link>
  <link name="my_vehicle__link_0">
    <inertial>
      <mass value="1"/>
      <origin rpy="0  0  0" xyz="0  0  0"/>
      <inertia ixx="0.145833" ixy="0" ixz="0" iyy="0.145833" iyz="0" izz="0.125"/>
    </inertial>
    <collision name="my_vehicle__collision">
      <origin rpy="0  0  0" xyz="0  0  0"/>
      <geometry>
        <cylinder length="0.25" radius="0.3"/>
      </geometry>
    </collision>
    <visual name="my_vehicle__visual">
      <origin rpy="0  0  0" xyz="0  0  0"/>
      <geometry>
        <cylinder length="0.25" radius="0.3"/>
      </geometry>
    </visual>
  </link>
  <link name="my_vehicle__link_0_clone">
    <inertial>
      <mass value="1"/>
      <origin rpy="0  0  0" xyz="0  0  0"/>
      <inertia ixx="0.145833" ixy="0" ixz="0" iyy="0.145833" iyz="0" izz="0.125"/>
    </inertial>
    <collision name="my_vehicle__collision">
      <origin rpy="0  0  0" xyz="0  0  0"/>
      <geometry>
        <cylinder length="0.25" radius="0.3"/>
      </geometry>
    </collision>
    <visual name="my_vehicle__visual">
      <origin rpy="0  0  0" xyz="0  0  0"/>
      <geometry>
        <cylinder length="0.25" radius="0.3"/>
      </geometry>
    </visual>
  </link>
  <link name="my_vehicle__link_2">
    <inertial>
      <mass value="1"/>
      <origin rpy="0  0  0" xyz="0  0  0"/>
      <inertia ixx="0.1" ixy="0" ixz="0" iyy="0.1" iyz="0" izz="0.1"/>
    </inertial>
    <collision name="my_vehicle__collision">
      <origin rpy="0  0  0" xyz="0  0  0"/>
      <geometry>
        <sphere radius="0.2"/>
      </geometry>
    </collision>
    <visual name="my_vehicle__visual">
      <origin rpy="0  0  0" xyz="0  0  0"/>
      <geometry>
        <sphere radius="0.2"/>
      </geometry>
    </visual>
  </link>
</robot>
